<?xml version="1.0" encoding="UTF-8"?>
<svg width="500px" height="461px" viewBox="0 0 500 461" version="1.1" xmlns="http://www.w3.org/2000/svg" xmlns:xlink="http://www.w3.org/1999/xlink">
    <title>C0872637-9196-4316-9C54-B8CB9F4212C8</title>
    <g id="Page-1" stroke="none" stroke-width="1" fill="none" fill-rule="evenodd">
        <g id="Illustration-" transform="translate(-42.000000, -1917.000000)" fill-rule="nonzero">
            <g id="Social-media-amico" transform="translate(42.000000, 1917.000000)">
                <g id="freepik--background-simple--inject-87" transform="translate(249.769449, 230.278200) rotate(210.000000) translate(-249.769449, -230.278200) translate(47.345751, 82.163299)">
                    <path d="M65.2362497,71.6144104 C-24.0457122,123.581491 -29.3863757,299.039861 97.6053148,295.681917 C154.3905,294.176632 170.981388,234.787337 222.228537,213.944925 C270.340949,194.364637 311.823973,233.629425 360.38918,189.165613 C417.615551,136.828001 425.835529,8.82085504 340.779657,0.263887049 C303.743317,-3.46458886 289.462847,33.4149011 257.105392,41.5781791 C191.508112,58.1363174 131.576579,33.0212111 65.2362497,71.6144104 Z" id="Path" fill="#388CE0"></path>
                    <path d="M65.2362497,71.6144104 C-24.0457122,123.581491 -29.3863757,299.039861 97.6053148,295.681917 C154.3905,294.176632 170.981388,234.787337 222.228537,213.944925 C270.340949,194.364637 311.823973,233.629425 360.38918,189.165613 C417.615551,136.828001 425.835529,8.82085504 340.779657,0.263887049 C303.743317,-3.46458886 289.462847,33.4149011 257.105392,41.5781791 C191.508112,58.1363174 131.576579,33.0212111 65.2362497,71.6144104 Z" id="Path" fill="#FFFFFF" opacity="0.9"></path>
                </g>
                <g id="freepik--Plants--inject-135" transform="translate(316.876122, 168.761221)">
                    <path d="M4.82397939,94.2140243 C5.47029896,86.4146009 23.2675045,57.1550028 28.7097026,52.6202355 C34.1519007,48.0854682 43.7623917,36.6262429 39.6221997,30.1157471 C35.4820076,23.6052513 23.3143392,26.5029865 11.8866599,46.7965405 C3.02552494,62.5365108 0.271641558,97.3469652 0.271641558,97.3469652 L4.82397939,94.2140243 Z" id="Path" fill="#388CE0"></path>
                    <path d="M2.38857232,93.4801823 L2.31363672,93.4801823 C2.19114933,93.4617763 2.08126636,93.3944323 2.00894633,93.2934467 C1.9366263,93.1924611 1.90800801,93.066406 1.92959176,92.9439131 C6.95964406,60.2785354 17.6473343,39.9003073 34.6015143,30.6426081 C34.8291362,30.5179035 35.1143096,30.6021477 35.2384669,30.8307727 C35.3626243,31.0593977 35.2787498,31.3458278 35.0511279,31.4705324 C18.3685895,40.5776999 7.84013738,60.7395387 2.84755288,93.0944448 C2.80696449,93.317239 2.6140703,93.4793516 2.38857232,93.4801823 L2.38857232,93.4801823 Z" id="Path" fill="#FFFFFF"></path>
                    <path d="M6.6130669,56.3741196 C6.6130669,56.3741196 20.8976661,31.5740229 32.7281243,20.2182882 C39.2849895,13.9241817 43.3127781,9.86923422 42.956834,5.10866938 C42.6945594,1.49590871 39.7065022,-0.432778622 33.2807743,1.1572124 C20.4761533,4.31837799 13.6101788,17.3487778 9.18897822,31.9409439 C6.05104988,42.2147321 6.6130669,56.3741196 6.6130669,56.3741196 Z" id="Path" fill="#388CE0"></path>
                    <path d="M6.6130669,56.3741196 C6.6130669,56.3741196 20.8976661,31.5740229 32.7281243,20.2182882 C39.2849895,13.9241817 43.3127781,9.86923422 42.956834,5.10866938 C42.6945594,1.49590871 39.7065022,-0.432778622 33.2807743,1.1572124 C20.4761533,4.31837799 13.6101788,17.3487778 9.18897822,31.9409439 C6.05104988,42.2147321 6.6130669,56.3741196 6.6130669,56.3741196 Z" id="Path" fill="#000000" opacity="0.2"></path>
                    <path d="M8.27101709,52.3003951 L8.20544844,52.3003951 C7.94784443,52.2570676 7.77260735,52.0140071 7.81203653,51.7546782 C12.8982905,19.5220791 32.2316759,7.38546126 38.0391851,4.43127676 C38.2694498,4.31512071 38.5498826,4.40760895 38.6667707,4.63825784 C38.7249472,4.74888738 38.7358576,4.87851544 38.6969973,4.99738442 C38.6581369,5.11625339 38.5728438,5.21415301 38.4606978,5.26860931 C32.7562251,8.17575266 13.76005,20.1053894 8.73936461,51.9052099 C8.70225819,52.1352684 8.50303307,52.303355 8.27101709,52.3003951 Z" id="Path" fill="#FFFFFF"></path>
                </g>
                <g id="freepik--speech-bubble--inject-135" transform="translate(88.868941, 111.310592)">
                    <path d="M314.918797,40.6333034 L311.811789,34.7894973 L314.306811,27.5695691 L314.306811,23.1490126 L306.661688,27.5695691 L306.661688,31.9901257 L309.947585,37.7019749 C309.998752,37.7913314 310.078288,37.8610014 310.173549,37.8999102 L310.173549,37.8999102 L314.918797,40.6333034 Z" id="Path" fill="#388CE0"></path>
                    <path d="M314.918797,40.6333034 L311.811789,34.7894973 L314.306811,27.5695691 L314.306811,23.1490126 L306.661688,27.5695691 L306.661688,31.9901257 L309.947585,37.7019749 C309.998752,37.7913314 310.078288,37.8610014 310.173549,37.8999102 L310.173549,37.8999102 L314.918797,40.6333034 Z" id="Path" fill="#000000" opacity="0.1"></path>
                    <path d="M297.180606,13.1956912 L318.232939,0.942549372 C319.675286,0.216444913 321.375783,0.216444913 322.81813,0.942549372 L324.701165,2.02648115 C326.059708,2.90687907 326.91407,4.3861244 326.998468,6.0040395 L326.998468,23.0830341 C326.909542,24.6996018 326.056282,26.1769379 324.701165,27.0605925 L303.630002,39.3137343 C302.187655,40.0398387 300.487158,40.0398387 299.044811,39.3137343 L297.161776,38.2298025 C295.807967,37.3462082 294.957677,35.8679547 294.873888,34.2522442 L294.873888,17.1543986 C294.972283,15.5433176 295.828183,14.0744538 297.180606,13.1956912 L297.180606,13.1956912 Z" id="Path" fill="#388CE0"></path>
                    <path d="M297.180606,13.1956912 L318.232939,0.942549372 C319.675286,0.216444913 321.375783,0.216444913 322.81813,0.942549372 L324.701165,2.02648115 C326.059708,2.90687907 326.91407,4.3861244 326.998468,6.0040395 L326.998468,23.0830341 C326.909542,24.6996018 326.056282,26.1769379 324.701165,27.0605925 L303.630002,39.3137343 C302.187655,40.0398387 300.487158,40.0398387 299.044811,39.3137343 L297.161776,38.2298025 C295.807967,37.3462082 294.957677,35.8679547 294.873888,34.2522442 L294.873888,17.1543986 C294.972283,15.5433176 295.828183,14.0744538 297.180606,13.1956912 L297.180606,13.1956912 Z" id="Path" fill="#FFFFFF" opacity="0.3"></path>
                    <path d="M303.639417,39.2948833 C302.368368,40.0206463 301.342114,39.4362657 301.342114,37.9658887 L301.342114,20.8868941 C301.43104,19.2703264 302.284299,17.7929903 303.639417,16.9093357 L324.71058,4.6561939 C325.981629,3.92100539 327.007883,4.51481149 327.007883,5.98518851 L327.007883,23.0641831 C326.918957,24.6807508 326.065698,26.1580869 324.71058,27.0417415" id="Path" fill="#388CE0"></path>
                    <path d="M294.892719,34.2333932 C294.976508,35.8491037 295.826798,37.3273572 297.180606,38.2109515 L299.063641,39.2948833 C300.370386,39.9516293 301.895488,40.0168174 303.253395,39.4739677 C302.180065,39.8886894 301.370359,39.2760323 301.370359,37.9658887 L301.370359,20.8868941 C301.400871,20.0874767 301.634161,19.3089928 302.048252,18.6247756 L295.589442,14.8545781 C295.178655,15.539691 294.948622,16.3181173 294.920964,17.1166966 L294.892719,34.2333932 Z" id="Path" fill="#388CE0"></path>
                    <path d="M294.892719,34.2333932 C294.976508,35.8491037 295.826798,37.3273572 297.180606,38.2109515 L299.063641,39.2948833 C300.370386,39.9516293 301.895488,40.0168174 303.253395,39.4739677 C302.180065,39.8886894 301.370359,39.2760323 301.370359,37.9658887 L301.370359,20.8868941 C301.400871,20.0874767 301.634161,19.3089928 302.048252,18.6247756 L295.589442,14.8545781 C295.178655,15.539691 294.948622,16.3181173 294.920964,17.1166966 L294.892719,34.2333932 Z" id="Path" fill="#000000" opacity="0.1"></path>
                    <path d="M311.454013,34.7612208 L314.739909,40.4636445 C314.839112,40.6274836 315.023177,40.720091 315.213702,40.7020214 C315.404227,40.6839518 315.567646,40.558389 315.634351,40.3788151 L319.108551,30.3406643 L319.108551,25.9201077 L311.454013,30.3406643 L311.454013,34.7612208 Z" id="Path" fill="#388CE0"></path>
                    <path d="M314.184414,28.9268402 L311.83062,28.3047576 C309.589808,27.7109515 306.915898,26.4196589 306.915898,23.5260323 C307.144854,21.1349576 308.498069,18.9961458 310.559571,17.7670557 C311.238084,17.2811351 312.127013,17.2034614 312.879358,17.5643551 C313.631703,17.9252488 314.128185,18.6674927 314.174998,19.5013465 C314.410378,17.6162478 315.935636,14.6566427 317.790426,13.5821364 C319.805274,12.4228007 321.434099,13.1108618 321.434099,15.1279174 C321.434099,18.0121185 318.769604,22.4043986 316.528792,25.5902154 L314.184414,28.9268402 Z" id="Path" fill="#FFFFFF"></path>
                    <path d="M2.91870447,85.489228 L23.9898677,73.2832136 C25.4300402,72.5479922 27.1348859,72.5479922 28.5750583,73.2832136 L30.4580934,74.3577199 C31.8084924,75.2445395 32.6576942,76.7209011 32.7459811,78.3352783 L32.7459811,95.4142729 C32.6576942,97.0286501 31.8084924,98.5050117 30.4580934,99.3918312 L9.41517572,111.597846 C7.97171467,112.333195 6.26403101,112.333195 4.82056997,111.597846 L2.93753482,110.523339 C1.56483678,109.63622 0.70275976,108.141719 0.621401597,106.508079 L0.621401597,89.4667864 C0.705799215,87.8488713 1.56016117,86.3696259 2.91870447,85.489228 L2.91870447,85.489228 Z" id="Path" fill="#388CE0"></path>
                    <path d="M2.91870447,85.489228 L23.9898677,73.2832136 C25.4300402,72.5479922 27.1348859,72.5479922 28.5750583,73.2832136 L30.4580934,74.3577199 C31.8084924,75.2445395 32.6576942,76.7209011 32.7459811,78.3352783 L32.7459811,95.4142729 C32.6576942,97.0286501 31.8084924,98.5050117 30.4580934,99.3918312 L9.41517572,111.597846 C7.97171467,112.333195 6.26403101,112.333195 4.82056997,111.597846 L2.93753482,110.523339 C1.56483678,109.63622 0.70275976,108.141719 0.621401597,106.508079 L0.621401597,89.4667864 C0.705799215,87.8488713 1.56016117,86.3696259 2.91870447,85.489228 L2.91870447,85.489228 Z" id="Path" fill="#FFFFFF" opacity="0.3"></path>
                    <path d="M20.6474803,112.945691 L17.5404724,107.09246 L20.0449091,99.8725314 L20.0449091,95.4519749 L12.3903712,99.9102334 L12.3903712,104.33079 L15.6856827,109.986086 C15.7354838,110.073055 15.8111984,110.142261 15.9022318,110.184022 L15.9022318,110.184022 L20.6474803,112.945691 Z" id="Path" fill="#388CE0"></path>
                    <path d="M20.6474803,112.945691 L17.5404724,107.09246 L20.0449091,99.8725314 L20.0449091,95.4519749 L12.3903712,99.9102334 L12.3903712,104.33079 L15.6856827,109.986086 C15.7354838,110.073055 15.8111984,110.142261 15.9022318,110.184022 L15.9022318,110.184022 L20.6474803,112.945691 Z" id="Path" fill="#000000" opacity="0.1"></path>
                    <path d="M9.41517572,111.597846 C8.14412699,112.333034 7.11787284,111.739228 7.11787284,110.268851 L7.11787284,93.1898564 C7.20673231,91.5757823 8.06037321,90.1012878 9.41517572,89.2217235 L30.4957541,76.9685817 C31.7573877,76.2428187 32.7836418,76.8366248 32.7836418,78.2975763 L32.7836418,95.3765709 C32.6953549,96.9909481 31.8461532,98.4673097 30.4957541,99.3541293" id="Path" fill="#388CE0"></path>
                    <path d="M0.621401597,106.508079 C0.710327602,108.124647 1.56358688,109.601983 2.91870447,110.485637 L4.80173961,111.560144 C6.11159487,112.215619 7.6377053,112.284129 9.00090798,111.748654 C7.91816278,112.15395 7.11787284,111.541293 7.11787284,110.231149 L7.11787284,93.1898564 C7.14553113,92.3912771 7.37556351,91.6128507 7.78635032,90.9277379 L1.33695495,87.2046679 C0.922863393,87.8888851 0.689573888,88.667369 0.6590623,89.4667864 L0.621401597,106.508079 Z" id="Path" fill="#388CE0"></path>
                    <path d="M0.621401597,106.508079 C0.710327602,108.124647 1.56358688,109.601983 2.91870447,110.485637 L4.80173961,111.560144 C6.11159487,112.215619 7.6377053,112.284129 9.00090798,111.748654 C7.91816278,112.15395 7.11787284,111.541293 7.11787284,110.231149 L7.11787284,93.1898564 C7.14553113,92.3912771 7.37556351,91.6128507 7.78635032,90.9277379 L1.33695495,87.2046679 C0.922863393,87.8888851 0.689573888,88.667369 0.6590623,89.4667864 L0.621401597,106.508079 Z" id="Path" fill="#000000" opacity="0.1"></path>
                    <path d="M17.1921109,107.064183 L20.4780072,112.719479 C20.57419,112.884644 20.7575266,112.978746 20.9476305,112.960524 C21.1377343,112.942303 21.2999039,112.815085 21.3630337,112.63465 L24.8372335,102.596499 L24.8372335,98.1759425 L17.1921109,102.596499 L17.1921109,107.064183 Z" id="Path" fill="#388CE0"></path>
                    <path d="M11.9572732,96.8657989 C10.6683244,97.6961951 9.86391658,99.1028141 9.80119792,100.635996 C9.80119792,102.012118 10.7427155,102.521095 11.9572732,101.880162 C13.2368786,101.040921 14.0382805,99.6395582 14.1133484,98.1099641 C14.1227636,96.733842 13.181246,96.1400359 11.9572732,96.8657989 Z" id="Path" fill="#FFFFFF"></path>
                    <path d="M19.9130966,92.2567325 C18.6275977,93.0916841 17.8217536,94.4946879 17.7476062,96.02693 C17.7476062,97.4030521 18.6891238,97.9591562 19.9130966,97.2710952 C21.192702,96.4318545 21.994104,95.0304917 22.0691719,93.5008977 C22.0691719,92.1247756 21.0994088,91.5686715 19.9130966,92.2567325 Z" id="Path" fill="#FFFFFF"></path>
                    <path d="M27.8595049,87.6570916 C26.5798995,88.4963322 25.7784976,89.897695 25.7034297,91.427289 C25.7034297,92.8034111 26.6449473,93.3123878 27.8595049,92.6714542 C29.1484537,91.841058 29.9528615,90.434439 30.0155802,88.9012567 C30.0155802,87.5157092 29.0552323,86.959605 27.8595049,87.6570916 Z" id="Path" fill="#FFFFFF"></path>
                </g>
                <g id="freepik--Devices--inject-135" transform="translate(207.360862, 65.529623)">
                    <path d="M107.988106,7.9313887 L16.2251162,60.7132281 C13.8131206,62.2823026 12.2953059,64.9029093 12.1381614,67.7696237 L12.1381614,270.231727 C12.1381614,272.828481 13.9692681,273.882236 16.2251162,272.583859 L107.988106,219.80202 C110.400101,218.232945 111.917916,215.612339 112.075061,212.745624 L112.075061,10.2835206 C112.075061,7.68676698 110.243954,6.6330119 107.988106,7.9313887 Z" id="Path" fill="#37474F"></path>
                    <path d="M16.2251162,60.7132281 L107.988106,7.9313887 C110.007987,6.77413981 111.678636,7.49859643 112.00899,9.52142985 C111.632069,6.94718238 110.168744,4.65648807 107.988106,3.22712494 L104.656247,1.34541944 C102.087463,0.0462911783 99.0511203,0.0462911783 96.4823371,1.34541944 L4.71934734,54.0990332 C3.51215251,54.8496653 2.51784014,55.8958627 1.83110677,57.1379876 L13.3368756,63.7239569 C14.0274856,62.4921606 15.0214803,61.4560114 16.2251162,60.7132281 Z" id="Path" fill="#455A64"></path>
                    <path d="M0.632392544,263.608124 C0.786526668,266.47573 2.30507187,269.097598 4.71934734,270.66452 L8.05120657,272.546225 C10.3809783,273.717101 13.1023471,273.836979 15.5266528,272.875524 C13.6389138,273.59998 12.1381614,272.518 12.1381614,270.194093 L12.1381614,67.7413981 C12.1854429,66.3219324 12.5982414,64.938455 13.3368756,63.7239569 L1.83110677,57.1379876 C1.09441373,58.3533421 0.681769156,59.7363034 0.632392544,61.1554289 L0.632392544,263.608124 Z" id="Path" fill="#263238"></path>
                    <path d="M18.424332,85.9280818 L105.78889,35.6771364 C107.138623,34.8962286 108.242951,35.5265999 108.242951,37.0884155 L108.242951,190.362737 C108.144948,192.082137 107.234315,193.653197 105.78889,194.596575 L18.424332,244.838112 C17.0745987,245.619019 15.9702714,244.988648 15.9702714,243.426833 L15.9702714,90.1619192 C16.0622713,88.4407373 16.974361,86.867166 18.424332,85.9280818 Z" id="Path" fill="#FAFAFA"></path>
                    <path d="M61.181619,42.1784289 C60.3349813,42.732449 59.802535,43.6542684 59.7469374,44.6622801 C59.7469374,45.6031329 60.3887686,45.9512484 61.181619,45.4902306 C62.0305337,44.9383544 62.5637063,44.0152776 62.6163006,43.0063793 C62.6163006,42.0937521 61.9744693,41.7268195 61.181619,42.1784289 Z" id="Path" fill="#263238"></path>
                    <path d="M47.5993373,56.7428295 C45.9181648,57.8570582 44.8673563,59.7005701 44.7677289,61.710532 C44.7677289,63.5357863 46.0513914,64.27906 47.5993373,63.3664328 C49.2996189,62.2636984 50.3693067,60.4178295 50.4781392,58.3987303 C50.4781392,56.573476 49.185038,55.8302023 47.5993373,56.7428295 Z" id="Path" fill="#263238"></path>
                    <path d="M54.6311649,56.1218667 C54.6311649,57.3449752 55.5750343,57.8059931 56.6793616,57.1568047 L75.556751,46.2711383 C76.7380677,45.5295762 77.4950052,44.2720457 77.595509,42.8840684 C77.595509,41.6703684 76.6516396,41.2093505 75.556751,41.8585389 L56.6793616,52.7442053 C55.4958853,53.4806321 54.7352094,54.7350553 54.6311649,56.1218667 L54.6311649,56.1218667 Z" id="Path" fill="#263238"></path>
                    <path d="M6.99407276,91.9871736 C8.35600969,92.8659867 9.21250583,94.3425694 9.29711427,95.9575722 C9.29711427,97.4158939 8.26829655,98.0086312 6.99407276,97.2841745 C5.63884526,96.3959519 4.78753614,94.9187798 4.70046995,93.3043674 C4.71934734,91.8460456 5.72928768,91.2627169 6.99407276,91.9871736 Z" id="Path" fill="#37474F"></path>
                    <path d="M6.99407276,109.64698 C8.35257542,110.529044 9.20796613,112.003721 9.29711427,113.617378 C9.29711427,115.085109 8.26829655,115.677846 6.99407276,114.943981 C5.66033521,114.064346 4.8181129,112.611715 4.71934734,111.020625 C4.71934734,109.51526 5.72928768,108.922523 6.99407276,109.64698 Z" id="Path" fill="#37474F"></path>
                    <path d="M6.28617066,92.3352891 C7.64467332,93.217353 8.50006403,94.6920299 8.58921217,96.3056877 C8.58921217,97.773418 7.56039445,98.3661552 6.28617066,97.6322901 C4.92993426,96.748086 4.07526863,95.2746591 3.98312916,93.6618915 C3.98312916,92.2035697 5.02138557,91.6108325 6.28617066,92.3352891 Z" id="Path" fill="#455A64"></path>
                    <path d="M6.28617066,110.004504 C7.64467332,110.886568 8.50006403,112.361245 8.58921217,113.974902 C8.58921217,115.442633 7.56039445,116.03537 6.28617066,115.301505 C4.92993426,114.417301 4.07526863,112.943874 3.98312916,111.331106 C3.98312916,109.863376 5.02138557,109.270639 6.28617066,110.004504 Z" id="Path" fill="#455A64"></path>
                    <path d="M62.106611,226.482074 C58.7604308,228.66022 56.6568051,232.298346 56.4433942,236.276352 C56.4433942,239.889226 58.9824031,241.347548 62.106611,239.550519 C65.453108,237.368297 67.5563545,233.727334 67.7698541,229.746833 C67.7792666,226.133959 65.2402577,224.675637 62.106611,226.482074 Z" id="Path" fill="#263238"></path>
                    <path d="M36.5371871,242.655333 C35.7348981,242.655333 35.6499498,241.71448 35.6499498,241.375774 L35.6499498,88.1108602 C35.7501199,86.5595844 36.5703175,85.1436121 37.8680431,84.2815895 L125.232601,34.030644 C125.493459,33.8751904 125.788115,33.7848168 126.091522,33.7672053 C126.893811,33.7672053 126.97876,34.6516069 126.97876,35.0373565 L126.97876,188.311678 C126.880026,189.860869 126.059134,191.274558 124.760666,192.13154 L37.3961084,242.382486 C37.1381377,242.545621 36.8422834,242.639603 36.5371871,242.655333 L36.5371871,242.655333 Z" id="Path" stroke="#388CE0" fill="#FFFFFF"></path>
                    <path d="M126.091522,34.2376316 C126.450193,34.2376316 126.506825,34.7362836 126.506825,35.0373565 L126.506825,188.311678 C126.410521,189.694094 125.678945,190.954634 124.524699,191.726974 L37.160141,241.977919 C36.9722554,242.095943 36.758537,242.166955 36.5371871,242.184907 C36.1785167,242.184907 36.1218846,241.676846 36.1218846,241.375774 L36.1218846,88.1108602 C36.2181884,86.7284445 36.9497648,85.4679042 38.1040105,84.6955647 L125.468568,34.4446192 C125.654513,34.3225585 125.869296,34.2511928 126.091522,34.2376316 M126.091522,33.2967789 C125.704029,33.3096945 125.326628,33.4232016 124.996634,33.6260774 L37.6320757,83.8770228 C36.1821047,84.816107 35.270015,86.3896783 35.1780151,88.1108602 L35.1780151,241.375774 C35.1780151,242.48598 35.7348981,243.12576 36.5371871,243.12576 C36.9253951,243.109147 37.3026423,242.992445 37.6320757,242.787053 L124.996634,192.545516 C126.445462,191.605351 127.357184,190.032413 127.450694,188.311678 L127.450694,35.0373565 C127.450694,33.9365588 126.893811,33.2967789 126.091522,33.2967789 Z" id="Shape" stroke="#388CE0" fill="#388CE0"></path>
                    <path d="M127.422378,35.0373565 C127.422378,33.4755409 126.32749,32.8451696 124.968318,33.6260774 L37.6037596,83.8770228 C36.1537886,84.816107 35.2416989,86.3896783 35.149699,88.1108602 L35.149699,100.671244 L127.422378,47.5977407 L127.422378,35.0373565 Z" id="Path" fill="#388CE0"></path>
                    <path d="M127.422378,35.0373565 C127.422378,33.4755409 126.32749,32.8451696 124.968318,33.6260774 L37.6037596,83.8770228 C36.1537886,84.816107 35.2416989,86.3896783 35.149699,88.1108602 L35.149699,100.671244 L127.422378,47.5977407 L127.422378,35.0373565 Z" id="Path" fill="#000000" opacity="0.1"></path>
                    <path d="M44.8054837,86.7748493 C44.4901028,86.6560156 44.1360316,86.7018977 43.8616142,86.8971602 C42.8777873,87.5480635 42.2561299,88.6203024 42.1815266,89.7949866 C42.1333128,90.1346351 42.2743657,90.4735222 42.5496357,90.6793882 C42.8650283,90.80867 43.225855,90.7583157 43.4935051,90.5476688 C44.4712036,89.8966892 45.0888446,88.8288375 45.1641541,87.6592509 C45.2145027,87.3214092 45.0772207,86.9829024 44.8054837,86.7748493 Z" id="Path" fill="#FFFFFF"></path>
                    <path d="M46.7970483,83.5665414 L46.589397,83.6888523 L46.589397,83.2654685 C46.589397,82.6727313 46.1740944,82.4281096 45.6455275,82.7291825 L41.6812757,85.0060461 C41.1285317,85.3628141 40.7783135,85.9597733 40.7374063,86.6149043 L40.7374063,87.0476966 L40.5203163,87.1700075 C39.7854821,87.6459854 39.3226171,88.4429242 39.2744086,89.3151517 L39.2744086,93.1444224 C39.2744086,93.9347388 39.8312916,94.2640372 40.5203163,93.8688791 L46.7781709,90.265413 C47.5144611,89.7864316 47.9773102,88.986025 48.0240786,88.1108602 L48.0240786,84.2627725 C48.042956,83.4912732 47.486073,83.1713833 46.7970483,83.5665414 Z M43.8521755,91.1686317 C43.547289,91.3543056 43.1993276,91.4580362 42.8422352,91.4697045 C42.6109247,91.4718718 42.3830959,91.4134745 42.1815266,91.300351 C41.6844758,90.9660771 41.4067099,90.3907458 41.4547471,89.7949866 C41.5213101,88.3642969 42.2817845,87.0552676 43.4935051,86.2856059 C43.9820942,85.9343713 44.6262463,85.8835843 45.1641541,86.1538865 C45.6623893,86.4863455 45.9377699,87.0642413 45.8814949,87.6592509 C45.8139154,89.0872525 45.0579394,90.3945913 43.8521755,91.1686317 L43.8521755,91.1686317 Z M46.6837839,86.0598012 C46.3628683,86.2385632 46.1080236,86.0598012 46.1080236,85.7210942 C46.1276895,85.3156526 46.3419912,84.9444496 46.6837839,84.7237903 C47.0046995,84.5356198 47.268983,84.7237903 47.268983,85.0530888 C47.254262,85.4554728 47.0517476,85.8278828 46.7215387,86.0598012 L46.6837839,86.0598012 Z" id="Shape" fill="#FFFFFF"></path>
                    <path d="M122.400993,38.9042613 L116.294157,42.4136421 C115.576251,42.8798133 115.124066,43.6589984 115.076566,44.5117437 L115.076566,48.2751547 C115.076566,49.0372454 115.62401,49.3571354 116.294157,48.9713857 L119.928055,46.8826926 L121.353298,48.3033803 C121.421676,48.3666083 121.521,48.3837559 121.606728,48.347133 C121.692455,48.31051 121.748498,48.2269894 121.749723,48.1340268 L121.749723,45.8289375 L122.400993,45.4525964 C123.129698,44.9927543 123.593026,44.212512 123.6469,43.3544948 L123.6469,39.5910838 C123.6469,38.8289931 123.07114,38.5185117 122.400993,38.9042613 Z" id="Path" fill="#FFFFFF"></path>
                    <path d="M46.9386287,98.4320149 C50.1289075,96.6255776 52.7151098,98.0933079 52.7151098,101.725 C52.4829064,105.753605 50.3371467,109.430279 46.9386287,111.62277 C43.7389112,113.504476 41.1527088,111.989703 41.1527088,108.329786 C41.3703177,104.294424 43.5238977,100.61037 46.9386287,98.4320149 L46.9386287,98.4320149 Z" id="Path" fill="#388CE0"></path>
                    <path d="M58.4349588,94.0005984 L77.6049477,82.9738042 C78.7375911,82.3246158 79.6531445,82.7856336 79.6531445,83.9993337 C79.5520207,85.3895512 78.7909876,86.6480593 77.6049477,87.3864036 L58.4349588,98.4131979 C57.3117541,99.0623862 56.3962008,98.6013684 56.3962008,97.3876684 C56.4967045,95.9996911 57.2536421,94.7421606 58.4349588,94.0005984 Z" id="Path" fill="#388CE0"></path>
                    <g id="Group" opacity="0.7" transform="translate(55.688299, 81.854189)" fill="#FFFFFF">
                        <path d="M2.74666015,12.146409 L21.9166491,1.11961477 C23.0492924,0.470426376 23.9648458,0.931444224 23.9648458,2.14514427 C23.863722,3.53536175 23.102689,4.79386988 21.9166491,5.53221418 L2.74666015,16.5590084 C1.62345549,17.2081968 0.707902102,16.747179 0.707902102,15.5334789 C0.808405882,14.1455017 1.56534347,12.8879712 2.74666015,12.146409 Z" id="Path"></path>
                    </g>
                    <path d="M57.7931276,101.819085 L70.9412293,94.2922628 C71.7152022,93.850062 72.3381561,94.1605434 72.3381561,94.9979024 C72.2696852,95.9498759 71.7510697,96.8126368 70.9412293,97.3218087 L57.7931276,104.848631 C57.0191546,105.290831 56.3962008,104.970942 56.3962008,104.133583 C56.4660977,103.184543 56.984732,102.325244 57.7931276,101.819085 Z" id="Path" fill="#388CE0"></path>
                    <g id="Group" opacity="0.7" transform="translate(55.688299, 94.085275)" fill="#FFFFFF">
                        <path d="M2.10482892,7.73380962 L15.2529306,0.206987605 C16.0269036,-0.235213188 16.6498574,0.0752682202 16.6498574,0.912627169 C16.5813865,1.86460067 16.062771,2.7273616 15.2529306,3.23653347 L2.10482892,10.7633555 C1.33085595,11.2055563 0.707902102,10.8856663 0.707902102,10.0483074 C0.777799045,9.09926803 1.29643331,8.23996901 2.10482892,7.73380962 Z" id="Path"></path>
                    </g>
                    <path d="M46.9386287,197.353273 C50.1289075,195.546836 52.7151098,197.023975 52.7151098,200.646258 C52.4829064,204.674863 50.3371467,208.351537 46.9386287,210.544029 C43.7389112,212.425734 41.1527088,210.910961 41.1527088,207.251044 C41.3749133,203.217054 43.5273608,199.534937 46.9386287,197.353273 L46.9386287,197.353273 Z" id="Path" fill="#388CE0"></path>
                    <path d="M58.4349588,192.931265 L77.6049477,181.895063 C78.7375911,181.245874 79.6531445,181.706892 79.6531445,182.920592 C79.5520207,184.31081 78.7909876,185.569318 77.6049477,186.307662 L58.4349588,197.343865 C57.3117541,197.993053 56.3962008,197.532035 56.3962008,196.308927 C56.499615,194.924354 57.2561992,193.670902 58.4349588,192.931265 Z" id="Path" fill="#388CE0"></path>
                    <g id="Group" opacity="0.7" transform="translate(55.688299, 181.584581)" fill="#FFFFFF">
                        <path d="M2.74666015,11.3466842 L21.9166491,0.310481408 C23.0492924,-0.338706991 23.9648458,0.122310858 23.9648458,1.33601091 C23.863722,2.72622839 23.102689,3.98473651 21.9166491,4.72308081 L2.74666015,15.7592836 C1.62345549,16.408472 0.707902102,15.9474541 0.707902102,14.7243456 C0.811316354,13.3397725 1.5679005,12.0863207 2.74666015,11.3466842 Z" id="Path"></path>
                    </g>
                    <path d="M57.7931276,200.740343 L70.9412293,193.213521 C71.7152022,192.77132 72.3381561,193.081802 72.3381561,193.919161 C72.2696852,194.871134 71.7510697,195.733895 70.9412293,196.243067 L57.7931276,203.769889 C57.0191546,204.21209 56.3962008,203.8922 56.3962008,203.064249 C56.4631775,202.111807 56.9821672,201.248423 57.7931276,200.740343 Z" id="Path" fill="#388CE0"></path>
                    <g id="Group" opacity="0.7" transform="translate(55.688299, 192.874814)" fill="#FFFFFF">
                        <path d="M2.10482892,7.86552901 L15.2529306,0.338706991 C16.0269036,-0.103493803 16.6498574,0.206987605 16.6498574,1.04434655 C16.5813865,1.99632006 16.062771,2.85908099 15.2529306,3.36825285 L2.10482892,10.8950749 C1.33085595,11.3372757 0.707902102,11.0173857 0.707902102,10.1894353 C0.774878805,9.23699241 1.29386856,8.37360891 2.10482892,7.86552901 Z" id="Path"></path>
                    </g>
                    <path d="M45.1452767,117.098534 L117.738278,75.3246713 C118.870921,74.6754829 119.786474,75.2023605 119.786474,76.5007373 L119.786474,148.767637 C119.708274,150.204805 118.947529,151.51875 117.738278,152.305243 L45.1452767,194.323727 C44.0126333,194.972916 43.1065186,194.446038 43.1065186,193.147661 L43.1065186,120.626731 C43.1810073,119.193357 43.9387922,117.881963 45.1452767,117.098534 L45.1452767,117.098534 Z" id="Path" fill="#F5F5F5"></path>
                    <path d="M71.7907118,133.648133 C71.412986,133.096371 70.7593988,132.798986 70.093738,132.876003 C69.4280773,132.953021 68.8602034,133.391729 68.6193104,134.015066 L43.1348347,182.261995 L43.1348347,193.147661 C43.1348347,194.446038 44.0787042,194.972916 45.1735928,194.323727 L117.766594,152.52164 C118.975845,151.735146 119.73659,150.421201 119.81479,148.984033 L119.81479,124.898203 L106.024857,100.483074 C105.260323,99.1188374 104.193751,99.2035142 103.636868,100.661836 L85.2786065,149.162795 L71.7907118,133.648133 Z" id="Path" fill="#388CE0"></path>
                    <g id="Group" opacity="0.3" transform="translate(42.474126, 98.789539)" fill="#FFFFFF">
                        <path d="M29.3165857,34.8585945 C28.9388599,34.306832 28.2852727,34.0094471 27.6196119,34.0864644 C26.9539512,34.1634816 26.3860773,34.6021901 26.1451843,35.225527 L0.660708628,83.4724562 L0.660708628,94.3581225 C0.660708628,95.6564993 1.6045781,96.1833768 2.69946668,95.5341884 L75.2924675,53.7321007 C76.5017188,52.9456073 77.2624643,51.6316623 77.3406643,50.1944943 L77.3406643,26.1086639 L63.5507313,1.69353495 C62.7861971,0.329298463 61.7196246,0.413975211 61.1627416,1.87229698 L42.8044804,50.3732563 L29.3165857,34.8585945 Z" id="Path"></path>
                    </g>
                    <path d="M50.7613,136.649454 C57.160735,132.989536 62.3614558,124.070252 62.3614558,116.731601 C62.3614558,112.96819 61.0022838,110.390253 58.8408227,109.204779 L45.1452767,117.079716 C43.9387922,117.863146 43.1810073,119.174539 43.1065186,120.607914 L43.1065186,137.674983 C45.1452767,138.58761 47.8164273,138.305355 50.7613,136.649454 Z" id="Path" fill="#388CE0"></path>
                    <g id="Group" opacity="0.6" transform="translate(42.474126, 109.138919)" fill="#FFFFFF">
                        <path d="M8.28717394,27.5105345 C14.6866089,23.8506173 19.8873297,14.9313332 19.8873297,7.59268171 C19.8873297,3.8292707 18.5281577,1.25133416 16.3666966,0.0658596926 L2.6711506,7.94079723 C1.46466606,8.72422637 0.706881221,10.0356202 0.632392544,11.468995 L0.632392544,28.536064 C2.6711506,29.4486911 5.34230119,29.1664353 8.28717394,27.5105345 Z" id="Path"></path>
                    </g>
                    <path d="M45.1452767,216.396133 L117.738278,174.612862 C118.870921,173.963674 119.786474,174.424692 119.786474,175.6478 C119.68243,177.034612 118.921754,178.289035 117.738278,179.025462 L45.1452767,220.808732 C44.0126333,221.457921 43.1065186,220.996903 43.1065186,219.773794 C43.2039455,218.38733 43.9620361,217.131382 45.1452767,216.396133 L45.1452767,216.396133 Z" id="Path" fill="#388CE0"></path>
                    <g id="Group" opacity="0.6" transform="translate(42.474126, 174.057759)" fill="#FFFFFF">
                        <path d="M2.6711506,42.3383738 L75.2641514,0.555103124 C76.3967948,-0.0940852752 77.3123482,0.366932573 77.3123482,1.59004115 C77.2083036,2.97685251 76.4476278,4.2312757 75.2641514,4.96770253 L2.6711506,46.7509732 C1.53850723,47.4001616 0.632392544,46.9391438 0.632392544,45.7160352 C0.729819447,44.3295709 1.48791001,43.0736233 2.6711506,42.3383738 L2.6711506,42.3383738 Z" id="Path"></path>
                    </g>
                    <path d="M45.1452767,225.221332 L117.738278,183.466287 C118.870921,182.817098 119.786474,183.278116 119.786474,184.501225 C119.68243,185.888036 118.921754,187.142459 117.738278,187.878886 L45.1452767,229.662157 C44.0126333,230.311345 43.1065186,229.850327 43.1065186,228.627219 C43.1966201,227.231024 43.9554115,225.963411 45.1452767,225.221332 Z" id="Path" fill="#388CE0"></path>
                    <g id="Group" opacity="0.6" transform="translate(42.474126, 182.525434)" fill="#FFFFFF">
                        <path d="M2.6711506,42.6958979 L75.2641514,0.940852752 C76.3967948,0.291664353 77.3123482,0.752682202 77.3123482,1.97579078 C77.2083036,3.36260214 76.4476278,4.61702533 75.2641514,5.35345216 L2.6711506,47.1367229 C1.53850723,47.7859113 0.632392544,47.3248934 0.632392544,46.1017848 C0.722493959,44.7055906 1.48128538,43.4379768 2.6711506,42.6958979 Z" id="Path"></path>
                    </g>
                    <path d="M56.3395686,77.7614799 L108.129686,47.9834903 C109.715387,47.0426376 110.961295,47.8141369 110.961295,49.6299827 L110.961295,49.6299827 C110.861901,51.6299317 109.809595,53.4620847 108.129686,54.5600511 L56.3490073,84.2533639 C54.7633066,85.1942167 53.5173989,84.4415345 53.5173989,82.6539143 C53.6264259,80.6692275 54.6736387,78.8538088 56.3395686,77.7614799 L56.3395686,77.7614799 Z" id="Path" fill="#FAFAFA"></path>
                </g>
                <g id="freepik--character-4--inject-135" transform="translate(368.043088, 157.091562)">
                    <polygon id="Path" fill="#F28F8F" points="46.9964976 41.954786 50.6601525 48.6498984 44.9621803 53.5233393 39.7351149 45.269477"></polygon>
                    <path d="M33.2460194,27.0339814 C36.8814198,27.0339814 40.8841275,28.38615 42.2591753,31.231338 L47.9100568,42.912572 C47.9100568,42.912572 44.6984725,47.6076018 39.603261,47.2695597 L33.2460194,27.0339814 Z" id="Path" fill="#E0E0E0"></path>
                    <path d="M46.7139536,49.692195 C47.7782029,47.7202825 48.0419107,47.6263819 48.6729258,47.1944392 C49.3039409,46.7624965 53.1842128,46.1897028 54.7947141,46.0488519 C56.6783412,45.8892209 57.3658651,46.2366531 56.8384495,47.8611334 C55.387735,51.9582696 53.6114908,55.9334851 51.5266209,59.7489488 C51.0180416,60.415643 50.9238603,61.0353869 48.7859434,61.2513583 C46.7987168,61.4391595 44.3029108,61.5518402 43.5682962,61.5894005 C42.8336816,61.6269607 41.8165229,61.8241519 42.4663743,59.6644383 C43.3072321,57.2247211 44.2819085,54.8329108 45.3859964,52.4998228 C46.2053742,50.7063215 46.7139536,49.692195 46.7139536,49.692195 Z" id="Path" fill="#388CE0"></path>
                    <path d="M4.27583365,116.126866 C3.33402007,115.657363 2.79718633,116.80295 1.97780852,117.723176 C1.27410924,118.399895 0.724824888,119.219764 0.367307296,120.127032 C0.169526444,121.206888 1.1584307,122.944049 2.25093446,123.883055 C3.34343821,124.822061 4.60546841,125.507536 5.00103011,127.573349 C5.20915901,129.50811 6.51331557,131.151708 8.35388645,131.798876 C10.7084204,132.813002 13.8634959,132.48435 14.9465815,131.798876 C16.2086117,130.98194 15.050181,130.080495 13.2795715,127.545179 C10.9627101,124.239878 9.154428,121.911143 9.154428,118.784253 L4.27583365,116.126866 Z" id="Path" fill="#263238"></path>
                    <path d="M6.1312064,113.413139 L4.24757924,116.230157 C3.40127685,117.428466 3.68780309,119.083683 4.88801248,119.92984 L4.94452129,119.976791 C6.13964021,120.684032 7.6703666,120.443474 8.58933985,119.403997 L11.5654708,116.173816 L6.1312064,113.413139 Z" id="Path" fill="#FFA8A7"></path>
                    <path d="M41.1101628,59.1010347 C41.2325985,62.6504772 40.224858,76.9890981 37.7667245,83.3273883 C35.3085911,89.6656784 33.8864526,93.6095034 33.1141655,94.9335018 C32.3418783,96.2575002 10.058569,117.873417 10.058569,117.873417 C10.058569,117.873417 6.29131471,117.601106 5.67913589,113.948372 C5.67913589,113.948372 14.8053095,98.4735543 16.783118,95.2997142 C18.7609265,92.125874 25.7680195,87.2618232 25.7680195,87.2618232 L25.1275863,59.5048072 L41.1101628,59.1010347 Z" id="Path" fill="#37474F"></path>
                    <path d="M8.09959679,55.6454928 C8.09959679,55.0351389 9.98322395,48.0207644 10.9250375,44.7811939 L17.8285311,47.1474889 L16.2086117,52.2556813 L10.1339141,58.518851 C8.79703653,58.2532575 7.90291985,56.9903683 8.09959679,55.6454928 Z" id="Path" fill="#FFA8A7"></path>
                    <polygon id="Rectangle" fill="#FFA8A7" transform="translate(37.776831, 130.687041) rotate(167.190000) translate(-37.776831, -130.687041) " points="35.3591663 127.177781 40.1899619 127.180895 40.1944963 134.196301 35.3637006 134.193187"></polygon>
                    <path d="M41.1101628,59.1010347 L18.5066368,59.1010347 C18.0128782,62.3913008 17.7297613,65.7095756 17.6590046,69.0357177 C17.48006,78.8013796 26.5968155,96.539202 26.5968155,96.539202 C26.1593758,100.485774 26.3564964,104.476662 27.1807399,108.361287 C29.1773847,116.136256 34.6210672,129.31051 34.6210672,129.31051 C34.6210672,129.31051 38.0398505,129.789403 39.7256968,127.82688 C39.7256968,127.82688 36.7118933,101.093381 35.9019337,94.2480275 C35.026047,86.8298805 32.7656944,73.2988047 32.7656944,73.2988047 C34.257674,71.8165319 35.6101337,70.2009331 36.8060747,68.4723141 C38.9025966,65.6892025 40.3679182,62.4853575 41.1007446,59.0822546" id="Path" fill="#37474F"></path>
                    <path d="M25.7868558,27.2311726 C21.4545133,28.2734692 15.5493422,29.6256378 13.8446596,34.3018875 C12.139977,38.9781371 9.6818436,47.2695597 9.6818436,47.2695597 C10.6236572,48.9128201 15.8507225,50.2743787 17.6684228,49.3259827 L18.516055,46.5089648 L18.516055,59.0728645 C21.9065839,62.7537678 33.7169262,64.4627587 41.1195809,59.0728645 L41.1195809,35.5977157 C41.1195809,31.8416919 39.0287547,27.3344633 33.2554375,27.0058112 L25.7868558,27.2311726 Z" id="Path" fill="#EBEBEB"></path>
                    <polygon id="Path" fill="#E0E0E0" points="18.516055 46.537135 20.6916443 39.7105617 18.516055 49.5889044"></polygon>
                    <path d="M24.1575183,8.04728102 C23.3701248,7.95992992 22.5859396,8.23669008 22.0290196,8.79848578 C21.0872061,9.73749173 21.3038232,11.4558726 22.0290196,15.4278678 L24.8544604,15.7471298 L24.1575183,8.04728102 Z" id="Path" fill="#263238"></path>
                    <path d="M40.6486741,6.90169375 C41.2424725,6.90790168 41.8315686,6.7961794 42.3816111,6.57304167 C43.2480796,6.07536852 43.4741148,7.06132477 42.9937899,7.91582018 C42.3557685,9.16098793 41.1144938,9.9860375 39.7162787,10.094314 C39.7162787,9.97224322 38.906319,7.88765 38.906319,7.88765 L40.6486741,6.90169375 Z" id="Path" fill="#263238"></path>
                    <path d="M25.4854755,15.7471298 C25.0710775,16.0006614 24.4683168,15.1931163 23.9503193,14.6578829 C23.5383337,14.1835768 22.9095882,13.9554826 22.2882184,14.0549113 C21.6668486,14.15434 21.1412708,14.5671438 20.8988433,15.146166 C20.041793,16.9490575 21.9913471,19.3529127 23.1403597,20.1416777 C23.7938741,20.7115664 24.7418631,20.7950748 25.4854755,20.348259 L25.7868558,27.2499528 C26.817958,29.4952288 28.9069975,31.077602 31.3529741,31.4660895 C35.4216087,32.0107129 34.5833946,28.6490716 33.2366012,27.0339814 L33.2366012,24.5268355 C34.254832,24.7411877 35.3008804,24.7919077 36.3351679,24.6770764 C36.8625835,24.5362256 38.1246137,23.0150359 38.9439915,21.3060451 C40.6814901,17.8841692 41.0679908,13.9368594 40.0270771,10.2445549 C38.5672661,4.06589578 31.9086441,3.87809459 27.9436089,6.36646036 C23.9785737,8.85482614 25.4854755,15.7471298 25.4854755,15.7471298 Z" id="Path" fill="#FFA8A7"></path>
                    <path d="M25.4854755,16.4513843 C25.2782765,16.4513843 24.4777349,15.1273859 23.9503193,14.6578829 C23.2251229,14.0005788 24.1575183,8.08484125 24.1575183,8.08484125 C23.7514015,6.79364746 24.0161951,5.38562451 24.8638785,4.32881744 C26.2954351,2.82640792 29.0643671,3.07993953 31.0892663,3.01420911 C33.5805291,3.02396717 36.0477901,2.52879133 38.3412308,1.55874988 C41.2231804,0.309871964 41.4397975,0.169021072 41.7882685,1.42728905 C42.3527166,3.53497142 41.9000684,5.78452291 40.5639109,7.51204762 L39.6220973,9.03323727 C39.6220973,9.03323727 38.7462107,9.76566191 36.062042,10.094314 C33.3778733,10.4229661 28.8006593,8.97689691 28.226153,8.90177643 C27.4444477,8.79848578 27.2843394,9.54969054 26.8605233,11.6061136 C26.5026341,13.3808348 26.2012538,16.4419942 25.4854755,16.4513843 Z" id="Path" fill="#263238"></path>
                    <path d="M24.1669365,8.51678399 L21.6240398,7.15522536 C21.7881863,6.82084549 22.0792262,6.56547699 22.4327461,6.44563854 C22.786266,6.32580009 23.1731122,6.3513744 23.507667,6.51670131 C24.2334239,6.89622364 24.5253972,7.78200817 24.1669365,8.51678399 L24.1669365,8.51678399 Z" id="Path" fill="#263238"></path>
                    <path d="M33.2366012,24.5268355 C31.503844,24.1956036 29.8047673,23.7084574 28.160226,23.0713763 C27.3898682,22.6657773 26.7573398,22.0416697 26.3425258,21.2778749 C26.5413447,22.0446068 26.8937505,22.7632881 27.3785208,23.3906383 C28.3203343,24.6207361 33.2366012,25.5221818 33.2366012,25.5221818 L33.2366012,24.5268355 Z" id="Path" fill="#F28F8F"></path>
                    <path d="M33.359037,15.615669 C33.3643201,16.037336 33.0284219,16.3847915 32.6055861,16.3950439 C32.4007427,16.3901234 32.2062571,16.3042421 32.0649448,16.1563065 C31.9236324,16.0083709 31.8470782,15.8105088 31.8521353,15.6062789 C31.8468522,15.1846119 32.1827504,14.8371565 32.6055861,14.826904 C32.8104296,14.8318245 33.0049152,14.9177058 33.1462275,15.0656414 C33.2875398,15.2135771 33.3640941,15.4114392 33.359037,15.615669 L33.359037,15.615669 Z" id="Path" fill="#263238"></path>
                    <path d="M32.5584955,12.770481 L30.9479942,13.7094869 C30.8244635,13.4895853 30.794786,13.2294028 30.8656371,12.9874612 C30.9364882,12.7455196 31.1019189,12.5421331 31.3247197,12.4230488 C31.7637749,12.1988446 32.3019586,12.3503976 32.5584955,12.770481 L32.5584955,12.770481 Z" id="Path" fill="#263238"></path>
                    <path d="M32.8975483,20.658131 L34.6210672,21.3060451 C34.4442708,21.773851 33.9308596,22.0215352 33.4532184,21.8694486 C33.217935,21.7829181 33.0269811,21.6064041 32.9226751,21.379025 C32.8183691,21.1516459 32.8093254,20.8921807 32.8975483,20.658131 Z" id="Path" fill="#F28F8F"></path>
                    <path d="M40.083586,13.3996149 L38.6143568,12.2728078 C38.9208615,11.878068 39.483572,11.7914379 39.8952232,12.0756166 C40.0977943,12.2251969 40.2317686,12.4494981 40.26717,12.6983339 C40.3025714,12.9471697 40.2364449,13.1997693 40.083586,13.3996149 Z" id="Path" fill="#263238"></path>
                    <path d="M39.6315154,15.3996976 C39.6367985,15.8213646 39.3009004,16.1688201 38.8780646,16.1790726 C38.6732211,16.1741521 38.4787355,16.0882707 38.3374232,15.9403351 C38.1961109,15.7923995 38.1195566,15.5945374 38.1246137,15.3903076 C38.1193306,14.9686406 38.4552288,14.6211851 38.8780646,14.6109326 C39.3023943,14.6261999 39.6369074,14.9763916 39.6315154,15.3996976 Z" id="Path" fill="#263238"></path>
                    <polygon id="Path" fill="#F28F8F" points="36.0808782 15.305797 35.3745181 19.7754654 37.8514878 19.4843735"></polygon>
                    <path d="M40.3755482,131.291812 L40.224858,130.615728 C40.7146011,130.709629 42.8336816,134.212121 44.9339259,135.73331 C47.231951,137.395351 49.2191777,138.381307 50.2457545,139.132512 C51.6208023,140.137248 49.6335757,142.193671 46.2524649,142.381473 C44.5760367,142.465983 41.543397,141.95892 40.6015834,141.066864 C39.6597698,140.174809 38.9816641,138.700569 38.2282132,138.062045 C37.4747623,137.423521 35.9772787,136.860118 35.4592813,136.043182 C35.1820939,135.23167 35.0825382,134.370359 35.1673191,133.517256 C35.1673191,132.634591 35.233246,131.639245 35.5346264,131.686195 L35.647644,132.193258 C36.5210013,132.637651 37.4930798,132.854102 38.4730847,132.822392 C39.2924625,132.784832 40.7711099,132.606421 40.3755482,131.291812 Z" id="Path" fill="#263238"></path>
                    <path d="M35.3180092,89.7032387 C35.3180092,89.7032387 33.3119463,75.4960786 32.7751126,73.2988047 C34.3866467,72.4213552 35.8856316,71.3524923 37.2393089,70.1155745 C36.3054002,71.4474623 35.2861165,72.7177687 34.1878329,73.9185486 L35.3180092,89.7032387 Z" id="Path" fill="#263238"></path>
                    <path d="M23.2157047,89.2055655 C23.2157047,89.2055655 25.6267475,95.1870334 26.6062336,96.5110318 C26.6062336,96.5110318 26.3613621,101.074601 26.3896165,101.994827 L25.1275863,103.093464 C25.0947092,101.029048 25.2841568,98.9670772 25.6926745,96.9429746 C24.585496,94.4619889 23.7548633,91.8673083 23.2157047,89.2055655 Z" id="Path" fill="#263238"></path>
                    <path d="M16.2368661,52.2556813 C16.2368661,52.2556813 35.233246,54.2839341 37.4653442,53.5984598 C39.6974424,52.9129854 42.6924096,50.7063215 44.2652382,49.7673155 C45.8380669,48.8283096 47.0341702,48.7719692 47.0341702,49.1569616 C47.0341702,49.5419541 45.6591223,51.6359374 45.3483239,52.5092129 C45.0375254,53.3824884 46.8269712,53.3824884 49.1909233,52.837865 C51.5548754,52.2932415 52.4966889,50.9598531 53.1088678,51.7298379 C53.7210466,52.4998228 51.7997469,56.4248677 47.8818024,57.8991071 C43.9638579,59.3733464 41.0536539,58.3873902 37.8138152,58.528241 C34.5739765,58.6690919 14.6169468,59.93675 10.124496,58.528241 C9.88222576,57.0645234 10.4822891,55.5887796 11.6784884,54.7064868 C13.0359828,53.6202154 14.5806812,52.7897104 16.2368661,52.2556813 Z" id="Path" fill="#FFA8A7"></path>
                </g>
                <g id="freepik--character-3--inject-135" transform="translate(278.276481, 244.165171)">
                    <path d="M0.399197381,56.3797285 C0.446720879,55.7689481 1.61579892,49.1913131 2.41419368,45.5078375 L10.2365614,47.8757861 L8.98194107,53.0345313 L2.48072658,59.2550946 C1.12002759,59.0022952 0.202314535,57.7345921 0.399197381,56.3797285 Z" id="Path" fill="#FFA8A7"></path>
                    <path d="M17.5456754,0.695349985 L21.3475552,0.695349985 C27.1900268,0.695349985 31.9262858,5.3777529 31.9262858,11.1537896 L31.9262858,37.802608 L6.96694477,37.802608 L6.96694477,11.1537896 C6.96694477,5.3777529 11.7032038,0.695349985 17.5456754,0.695349985 Z" id="Path" fill="#263238"></path>
                    <polygon id="Path" fill="#F28F8F" points="38.2374063 42.5572984 41.9347344 49.2570895 36.1748865 54.1245394 30.9092829 45.8649091"></polygon>
                    <path d="M24.3605449,27.6166703 C28.029359,27.6166703 32.0688563,28.9697838 33.4565424,31.8169601 L39.1593621,43.5063572 C39.1593621,43.5063572 35.9182596,48.2046679 30.7762171,47.8757861 L24.3605449,27.6166703 Z" id="Path" fill="#455A64"></path>
                    <path d="M27.3260112,143.542789 C28.5885669,145.212422 30.0079097,146.76035 31.5651072,148.165926 C31.8151113,148.364481 32.0138288,148.61891 32.1448939,148.90826 C32.3064738,149.396884 32.5155771,150.571462 30.3199916,151.050689 C28.0679371,151.53886 25.7124673,151.034711 23.8663006,149.669386 C22.2600063,148.391445 22.4501003,146.145653 20.9673672,144.670383 C19.8648221,143.589772 18.3725842,143.166924 17.5456754,141.851397 C16.9658887,140.911735 17.2795438,139.793537 17.8023022,138.412233 C18.3250607,137.03093 18.695744,135.771783 19.1994931,135.950319 L19.0284085,136.645669 C19.551167,137.745073 22.8302883,138.440423 24.4365825,137.914213 C25.3009558,139.838384 26.2653862,141.717084 27.3260112,143.542789 Z" id="Path" fill="#263238"></path>
                    <path d="M28.6186503,145.159008 L28.6186503,145.159008 C28.1719295,144.642193 27.7347133,144.115983 27.3260112,143.542789 C26.4853499,142.159181 25.7330111,140.724964 25.0733974,139.248533 C24.6449545,138.368999 24.5702187,137.361463 24.864294,136.429546 L25.9478298,132.811847 L20.24501,131.515113 L19.0093991,136.579892 L19.0093991,136.579892 C18.7432675,137.735677 19.5891858,138.882065 21.1384518,140.554663 C22.6877178,142.227262 24.4746013,145.910737 25.8908016,146.953762 C27.3070018,147.996787 28.4665751,148.10015 29.1889323,147.743079 C29.9112895,147.386007 30.0918788,147.057125 28.6186503,145.159008 Z" id="Path" fill="#FFA8A7"></path>
                    <path d="M11.9854261,146.728243 L11.9854261,145.929531 C12.3085859,146.869193 13.7723096,150.872153 15.9964093,152.88303 C17.7737882,154.471059 20.1879818,156.322194 20.7962826,158.098155 C21.4045834,159.874117 17.4411237,160.569467 15.7873059,160.278171 C13.5804694,159.912458 11.5565422,158.839361 10.027458,157.22427 C9.07698807,156.068485 8.4686873,154.696578 7.78434893,153.785106 C7.10001056,152.873634 5.54123984,151.905782 5.18006125,150.815774 C5.06566989,149.833805 5.17278901,148.838977 5.49371634,147.902821 C5.75984792,146.963159 6.03548421,145.844961 6.3776534,145.929531 L6.3776534,146.587294 C7.19130163,147.213968 8.19781563,147.545658 9.22906326,147.526956 C10.0084486,147.526956 11.9949308,147.34842 11.9854261,146.728243 Z" id="Path" fill="#263238"></path>
                    <path d="M17.6027036,154.283127 L15.9964093,152.873634 C14.5067353,151.313213 13.3438688,149.476977 12.5747175,147.470577 C12.1854423,146.544361 11.9851744,145.551215 11.9854261,144.548227 L11.9854261,141.381566 L6.3776534,141.381566 L6.3776534,146.530914 L6.3776534,146.530914 L6.3776534,146.671864 L6.3776534,146.671864 C6.64378498,147.827648 9.22906326,150.890947 10.6832823,152.892427 C11.8758215,154.612495 13.6941063,155.810901 15.7587918,156.237624 C17.8973492,156.519523 19.0093991,155.861759 17.6027036,154.283127 Z" id="Path" fill="#FFA8A7"></path>
                    <path d="M7.48970324,60.5048453 C3.14605555,69.9014667 7.65128313,102.986971 7.65128313,102.986971 C7.51821734,104.51862 5.75034323,107.516142 5.10402366,114.262916 C4.32463829,122.193665 6.3206252,142.095709 6.3206252,142.095709 C8.06424181,143.107518 10.2036541,143.192121 12.0234449,142.321228 C12.0234449,142.321228 17.3745908,112.336609 18.3820889,104.452844 L21.5946774,79.1571388 L26.3470271,103.842063 C25.0753868,105.776498 24.0235065,107.843732 23.2104763,110.006247 C22.079417,113.492393 19.7887845,133.356851 19.7887845,133.356851 C21.3550309,134.772499 23.4950019,135.393317 25.5866512,135.038846 C25.5866512,135.038846 36.5645792,107.788644 37.0588235,102.225844 C37.3534692,98.8900438 32.4300349,59.1705251 32.4300349,59.1705251 L7.48970324,60.5048453 Z" id="Path" fill="#37474F"></path>
                    <path d="M21.5566586,79.1195523 L22.3170345,73.6883051 C22.3170345,73.6883051 28.2954905,72.4667444 31.0043299,69.9296566 C29.1338558,72.0973222 26.6878757,73.7050939 23.9423382,74.5715876 L23.1439434,79.8149023 L24.0944133,91.9647338 L21.5566586,79.1195523 Z" id="Path" fill="#263238"></path>
                    <path d="M15.2075193,27.8703791 L15.2075193,27.8703791 C11.9657431,28.6498454 9.25655665,30.8409332 7.84137713,33.8278371 C6.81513226,36.0699679 6.7195762,38.6206441 7.57524554,40.9316829 L11.4056395,52.047886 C11.4056395,52.047886 9.59024184,56.3985217 7.47069384,60.5048453 C17.2320203,65.8891094 29.4075404,63.0607263 32.3444926,59.1329386 C32.4680536,58.2966393 32.2969691,54.5379907 32.5345865,50.2719246 C32.7817087,45.7145632 33.4185236,40.5652147 32.6961664,37.7556248 C31.3464991,32.5217067 28.8277537,27.6166703 23.8187771,27.6166703 L15.2075193,27.8703791 Z" id="Path" fill="#455A64"></path>
                    <path d="M13.7152814,27.8703791 C10.3886366,28.3308136 5.50322104,28.9979737 3.81138452,36.8159627 C2.119548,44.6339517 1.61579892,47.4999213 1.61579892,47.4999213 C3.80845156,49.6270985 6.79701411,50.7571911 9.86587813,50.6195996 L11.5862287,44.6057619 L13.7152814,27.8703791 Z" id="Path" fill="#455A64"></path>
                    <path d="M15.6067167,34.4668074 L15.6067167,34.4668074 C14.4471473,34.4668074 13.3350708,34.0114081 12.5151314,33.2007923 C11.695192,32.3901764 11.2345549,31.2907454 11.2345549,30.1443615 L11.2345549,17.5622854 L15.6067167,17.5622854 L15.6067167,34.4668074 Z" id="Path" fill="#263238"></path>
                    <path d="M27.8297603,5.68495596 C29.1509135,6.45547891 30.7762171,9.73489979 30.6146372,16.60383 C30.4815714,22.4297353 28.5711268,23.876815 27.6111522,24.2902664 C26.6511775,24.7037177 24.8072658,24.4500089 23.0108776,24.149317 L23.0108776,27.6448602 C23.0108776,27.6448602 25.4916042,30.4638466 25.339529,32.1082554 C25.1874538,33.7526641 21.7467526,34.0909425 19.4181012,32.5217067 C17.9181948,31.4461465 16.6297362,30.1086486 15.6162214,28.5751257 L15.6162214,20.1181665 C15.2338067,20.5809672 14.6799454,20.8732073 14.0781848,20.929698 C13.4764242,20.9861887 12.8768252,20.8022306 12.4131376,20.4188583 C10.4266554,19.112728 10.3506178,15.8896868 11.5101912,14.7808855 C12.6697645,13.6720842 15.1504911,13.9915693 15.6162214,15.5889949 C17.965226,15.4870806 20.2516706,14.808947 22.269511,13.6157044 C25.3042912,12.0090177 27.3730641,9.0582655 27.8297603,5.68495596 L27.8297603,5.68495596 Z" id="Path" fill="#FFA8A7"></path>
                    <path d="M24.0373852,15.1473537 C24.0420501,15.5483181 23.7199236,15.8785546 23.3144452,15.8884947 C22.9089668,15.8984348 22.5706806,15.5843879 22.5552385,15.1836877 C22.5397965,14.7829875 22.8529318,14.444404 23.2579998,14.4238139 C23.4587789,14.4162105 23.6542647,14.4884785 23.8007365,14.6244551 C23.9472083,14.7604318 24.0324457,14.9487721 24.0373852,15.1473537 L24.0373852,15.1473537 Z" id="Path" fill="#263238"></path>
                    <path d="M24.2369838,20.08058 L25.9573345,20.625584 C25.8957582,20.8569389 25.740937,21.0532218 25.5289848,21.1686476 C25.3170326,21.2840733 25.0664831,21.3085486 24.8357799,21.2363644 C24.3557059,21.0713538 24.0918965,20.5621541 24.2369838,20.08058 Z" id="Path" fill="#F28F8F"></path>
                    <path d="M30.1108882,12.8921646 L28.6186503,11.8679328 C28.7451374,11.6656601 28.9503204,11.5238317 29.1859093,11.4758274 C29.4214981,11.427823 29.6666855,11.4778825 29.863766,11.6142241 C30.2793633,11.9058199 30.3883793,12.4695732 30.1108882,12.8921646 L30.1108882,12.8921646 Z" id="Path" fill="#263238"></path>
                    <path d="M29.768719,14.6117463 C29.7959325,15.0237689 29.4819099,15.3803691 29.0653712,15.4104591 C28.6509248,15.4160161 28.3064161,15.0961926 28.2859858,14.6869193 C28.272403,14.4250663 28.4011556,14.1759401 28.6237438,14.0333843 C28.8463321,13.8908285 29.1289394,13.8765006 29.3651105,13.9957978 C29.6012815,14.1150951 29.7551362,14.3498933 29.768719,14.6117463 L29.768719,14.6117463 Z" id="Path" fill="#263238"></path>
                    <polygon id="Path" fill="#F28F8F" points="26.2709895 14.198295 26.3945506 18.6053104 28.7422114 17.8817706"></polygon>
                    <path d="M23.0108776,24.149317 C21.1099377,23.9050049 17.2130109,22.7962036 16.6047101,21.2739509 C16.8469629,22.0464208 17.325053,22.7258606 17.9733868,23.2190515 C19.1329602,24.2056968 23.0108776,25.3238947 23.0108776,25.3238947 L23.0108776,24.149317 Z" id="Path" fill="#F28F8F"></path>
                    <path d="M37.9427606,50.2907178 C39.0167916,48.3174273 39.2829232,48.2328577 39.9292428,47.8006131 C40.5755624,47.3683686 44.4819939,46.785778 46.1072975,46.6448287 C48.0082374,46.4850861 48.7020805,46.8327611 48.1698173,48.4677733 C46.6878606,52.5636552 44.8827521,56.5381217 42.771148,60.3544994 C42.2578942,61.0310561 42.1533425,61.6512331 40.0052804,61.8579588 C37.8572183,62.0646845 35.4715387,62.1586507 34.7301721,62.2056338 C33.9888056,62.2526169 32.962298,62.4311527 33.627627,60.2699298 C34.4750519,57.8294201 35.45547,55.4360453 36.5645792,53.1003076 C37.4295068,51.3243462 37.9427606,50.2907178 37.9427606,50.2907178 Z" id="Path" fill="#388CE0"></path>
                    <path d="M8.98194107,53.0721178 C8.98194107,53.0721178 26.3660365,54.8856657 28.6186503,54.1997123 C30.8712641,53.513759 33.8937586,51.2867597 35.5190622,50.3658908 C37.1443658,49.4450219 38.3134439,49.3698489 38.3134439,49.7457138 C38.3134439,50.1215786 36.9257577,52.2358185 36.602598,53.1003076 C36.2794382,53.9647968 38.1043405,53.9741934 40.4805154,53.4291894 C42.8566903,52.8841853 43.8166649,51.5498651 44.4439751,52.320388 C45.0712852,53.090911 43.1228218,57.0186988 39.1688668,58.4939683 C35.2149118,59.9692379 32.2779597,58.9919892 29.008343,59.1235419 C25.7387264,59.2550946 7.01446826,60.7021743 2.48072658,59.2926811 C2.23622961,57.8279407 2.84180827,56.3511655 4.04900201,55.4682562 C5.51500491,54.3519511 7.19230135,53.5372168 8.98194107,53.0721178 Z" id="Path" fill="#FFA8A7"></path>
                    <path d="M10.2365614,48.6557057 C10.9824289,46.6587643 11.6170273,44.6229086 12.1375013,42.5572984 C12.1375013,42.5572984 11.8238462,47.0958665 10.5312071,49.5295915 L10.2365614,48.6557057 Z" id="Path" fill="#37474F"></path>
                </g>
                <g id="freepik--Floor--inject-124" transform="translate(42.190305, 400.359066)" fill="#263238">
                    <path d="M409.377172,1.12208259 C409.377172,1.2567325 317.921471,1.35547576 205.126106,1.35547576 C92.3307405,1.35547576 0.856221073,1.2567325 0.856221073,1.12208259 C0.856221073,0.987432675 92.2931044,0.897666068 205.116697,0.897666068 C317.940289,0.897666068 409.377172,0.996409336 409.377172,1.12208259 Z" id="Path"></path>
                </g>
                <g id="freepik--character-2--inject-135" transform="translate(139.138241, 192.998205)">
                    <polygon id="Path" fill="#F28F8F" points="10.2245859 43.6365512 7.14203448 50.2512907 12.8803225 55.1322524 17.840859 46.8120031"></polygon>
                    <path d="M24.375868,28.5036854 C20.7147454,28.5036854 16.6837167,29.8699778 15.2989397,32.715635 C13.9141628,35.5612922 9.60807561,44.4469039 9.60807561,44.4469039 C9.60807561,44.4469039 12.8423834,49.1582569 17.9736459,48.8190394 L24.375868,28.5036854 Z" id="Path" fill="#37474F"></path>
                    <rect id="Rectangle" fill="#FFA8A7" x="35.1885099" y="133.463207" width="5.06486908" height="7.32144251"></rect>
                    <polygon id="Rectangle" fill="#FFA8A7" transform="translate(20.041731, 128.149492) rotate(-1.970000) translate(-20.041731, -128.149492) " points="17.5084878 124.488173 22.5733177 124.489312 22.5749746 131.810811 17.5101447 131.809672"></polygon>
                    <path d="M39.9119271,61.9825596 C39.9119271,66.7881397 40.5379222,97.8453784 40.5379222,97.8453784 C40.6612242,99.2210935 41.9606382,101.774647 41.676095,107.07963 C41.296704,114.288 40.670709,134.31125 40.670709,134.31125 C40.670709,134.31125 38.2995156,136.648081 34.9798449,134.31125 C34.9798449,134.31125 30.3892145,107.098476 29.488161,99.9560645 C28.69144,93.7276559 27.3540869,76.7950534 27.3540869,76.7950534 L22.659124,96.7240764 C22.659124,96.7240764 23.4842993,101.435429 23.6739948,104.714531 C23.8636903,107.993633 22.8108804,127.131148 22.8108804,127.131148 C21.141033,128.166391 19.0440966,128.245274 17.300227,127.338448 C17.300227,127.338448 13.2407439,99.428393 12.7190813,96.4413952 C12.1974188,93.4543974 16.2758714,61.9825596 16.2758714,61.9825596 L39.9119271,61.9825596 Z" id="Path" fill="#37474F"></path>
                    <path d="M32.2956539,28.7298304 L32.3715321,28.7298304 C36.842366,29.8466336 39.972155,33.8459809 39.9593901,38.4257948 L39.9593901,61.9825596 C36.4120457,65.8176009 24.043901,67.6361832 16.2474171,61.9825596 L16.2474171,37.4835242 C16.2474171,33.5731012 18.4383998,28.8617483 24.4802005,28.5131082 L32.2956539,28.7298304 Z" id="Path" fill="#455A64"></path>
                    <path d="M34.0029132,8.68773487 C34.8271669,8.59620671 35.6482774,8.88431815 36.231835,9.46981946 C37.1803123,10.4120901 36.9906168,12.2495177 36.231835,16.3860856 L33.2725856,16.725303 L34.0029132,8.68773487 Z" id="Path" fill="#263238"></path>
                    <path d="M16.7311405,7.53816475 C16.0960816,7.53993178 15.4671339,7.41496539 14.8816097,7.17067922 C13.9331323,6.65243039 13.7339521,7.67950534 14.2271603,8.56523969 C14.8992102,9.86551722 16.2030541,10.72549 17.6701331,10.8361118 C17.6701331,10.7136166 18.514278,8.54639428 18.514278,8.54639428 L16.7311405,7.53816475 Z" id="Path" fill="#263238"></path>
                    <path d="M32.6086515,16.725303 C33.0544358,16.9891388 33.6804309,16.150518 34.221063,15.5851556 C34.6519392,15.0867674 35.3129777,14.8472756 35.9656505,14.9530978 C36.6183234,15.0589201 37.1684151,15.4947806 37.4174317,16.1034044 C38.365909,17.9879456 36.2697741,20.4943854 35.0746926,21.3141608 C34.3867557,21.9095506 33.3911138,21.9970503 32.6086515,21.5308831 L32.2956539,28.7298304 C31.217144,31.0756515 29.0266826,32.7280928 26.4625182,33.1302341 C22.2038549,33.7050191 23.0859388,30.2186179 24.4802005,28.5036854 L24.4802005,25.8841732 C23.4182984,26.113166 22.3261605,26.1704383 21.2458928,26.0537819 C20.6862911,25.9030186 19.348938,24.3105813 18.5047932,22.5296899 C17.5563158,20.5320762 15.9533891,16.9891388 17.3761051,10.9868751 C18.9031537,4.53232155 25.9124013,4.33444473 30.0287931,6.93511157 C34.1451848,9.5357784 32.6086515,16.725303 32.6086515,16.725303 Z" id="Path" fill="#FFA8A7"></path>
                    <path d="M32.6086515,17.4602741 C32.836286,17.4602741 33.6709461,16.084559 34.221063,15.5757329 C34.9798449,14.8878754 34.0029132,8.67831216 34.0029132,8.67831216 C34.0029132,8.67831216 34.7711798,6.33205839 33.2725856,4.7678892 C31.7739914,3.20372002 28.8621659,3.46755578 26.7375766,3.39217414 C24.1304179,3.40804728 21.5477684,2.89169032 19.1497578,1.87511848 C16.1335998,0.574785062 15.9059652,0.424021767 15.5360591,1.73377789 C14.9428373,3.9332905 15.4163397,6.28182493 16.8165035,8.08468169 L18.3150977,8.63119864 C18.3150977,8.63119864 19.1213035,9.34732429 21.9382812,9.6865417 C24.5359572,9.8776214 27.1458358,9.83030753 29.7347651,9.54520111 C30.5504556,9.43212864 30.6832424,10.2142132 31.1669659,12.3720129 C31.5463568,14.2565541 31.8688391,17.4508514 32.6086515,17.4602741 Z" id="Path" fill="#263238"></path>
                    <path d="M33.9934284,9.17771558 L36.6586498,7.75488698 C36.4877764,7.39527883 36.1758391,7.121093 35.795742,6.99641053 C35.4156449,6.87172806 35.0006972,6.90747528 34.6478778,7.09529757 C33.9062544,7.50547505 33.6184654,8.42120195 33.9934284,9.17771558 L33.9934284,9.17771558 Z" id="Path" fill="#263238"></path>
                    <path d="M24.4896853,25.8841732 C26.3072205,25.5450401 28.0886907,25.037126 29.8106433,24.3671175 C30.6209185,23.9448783 31.2825775,23.2875492 31.707598,22.4825764 C31.500507,23.2824561 31.1327125,24.0324625 30.6263338,24.6874895 C29.6209478,25.9689776 24.4802005,26.9112481 24.4802005,26.9112481 L24.4896853,25.8841732 Z" id="Path" fill="#F28F8F"></path>
                    <path d="M25.4381627,15.7453416 C25.4486386,16.1810922 25.8117649,16.5264217 26.2504248,16.517795 C26.6890848,16.5091684 27.03817,16.1498326 27.0312792,15.7140116 C27.0243884,15.2781905 26.6641152,14.9299242 26.2253989,14.9349889 C25.7838562,14.9452812 25.4328451,15.3065994 25.4381627,15.7453416 Z" id="Path" fill="#263238"></path>
                    <path d="M26.2728227,12.786612 L27.9705972,13.7288825 C28.2149337,13.2484025 28.0403464,12.6619938 27.5722367,12.3908583 C27.3477866,12.2686803 27.0831615,12.2418011 26.8384673,12.316326 C26.5937731,12.3908508 26.3897802,12.5604538 26.2728227,12.786612 L26.2728227,12.786612 Z" id="Path" fill="#263238"></path>
                    <path d="M25.4950713,21.0691705 L23.6929643,21.7476053 C23.7726593,21.9898868 23.9477553,22.1897577 24.1782996,22.3016123 C24.4088438,22.4134669 24.6751669,22.427762 24.9165001,22.3412358 C25.4250982,22.1436834 25.6819658,21.578926 25.4950713,21.0691705 Z" id="Path" fill="#F28F8F"></path>
                    <path d="M18.3909759,13.4367787 L19.9180245,12.2495177 C19.7697121,12.0411486 19.542668,11.9014546 19.2888151,11.8623827 C19.0349621,11.8233107 18.7760129,11.8882026 18.5711866,12.0422182 C18.1455744,12.3844988 18.0661927,12.9987939 18.3909759,13.4367787 L18.3909759,13.4367787 Z" id="Path" fill="#263238"></path>
                    <path d="M18.8652146,15.5286194 C18.859897,15.9673616 19.2109081,16.3286798 19.6524508,16.3389721 C20.0992319,16.3286785 20.4544884,15.963142 20.4491718,15.5191967 C20.4824505,15.2175422 20.3391957,14.9235412 20.0803913,14.7623505 C19.8215868,14.6011598 19.4927996,14.6011598 19.2339951,14.7623505 C18.9751907,14.9235412 18.8319358,15.2175422 18.8652146,15.5191967 L18.8652146,15.5286194 Z" id="Path" fill="#263238"></path>
                    <polygon id="Path" fill="#F28F8F" points="22.8962434 14.7842256 22.6306697 19.5050013 20.1551438 18.6663805"></polygon>
                    <path d="M35.1885099,138.297055 L35.1885099,137.571507 C34.7047864,137.778806 33.5760984,142.047292 31.5748112,143.865874 C29.9718844,145.307548 27.7809017,146.98479 27.2402696,148.577227 C26.6996375,150.169664 30.2753972,151.177894 31.7645066,150.914058 C33.5002202,150.612532 36.5068934,149.397003 37.2561905,148.275701 C38.0054876,147.154399 38.365909,145.496002 38.9729345,144.666804 C39.57996,143.837606 41.0026761,142.923604 41.3346431,141.97191 C41.4322623,141.081678 41.3318886,140.18101 41.0406152,139.333553 C40.8034958,138.447818 40.5568917,137.449011 40.253379,137.552661 C40.253379,137.656311 40.253379,138.099178 40.253379,138.099178 C39.5330843,138.663807 38.6383198,138.96344 37.7209444,138.947222 C36.9906168,139.003758 35.1790251,138.862417 35.1885099,138.297055 Z" id="Path" fill="#263238"></path>
                    <path d="M17.5942549,130.334868 C17.3286813,130.334868 17.1105315,130.711777 16.5319603,131.333675 C15.6683549,132.206623 14.6611658,132.926799 13.5537414,133.463207 C11.6567867,134.405477 7.97669456,135.856574 6.30737441,136.600968 C5.27353409,137.072103 5.35889706,138.3159 6.39273737,139.032026 C7.42657769,139.748152 10.0728295,140.256978 13.19332,139.559698 C14.8910945,139.182789 17.1105315,137.628043 18.5047932,137.675156 C19.8990549,137.72227 22.5263372,137.741115 23.5601775,137.034412 C24.5940178,136.327709 24.1861726,134.810654 23.8921446,133.51032 C23.5981166,132.209987 23.1143931,129.929692 22.6401545,130.023919 L22.6401545,130.466786 C22.033129,131.409057 18.931608,131.757697 17.5942549,131.088685 L17.5942549,130.334868 Z" id="Path" fill="#263238"></path>
                    <path d="M10.8221266,51.2500976 C9.75034721,49.2619066 9.48477355,49.1771023 8.83980895,48.7436578 C8.19484435,48.3102133 4.29660242,47.7260056 2.67470614,47.5940877 C0.777751431,47.4339017 0.085362962,47.7825418 0.616510281,49.4126699 C2.08527822,53.5209626 3.87382141,57.5093993 5.96592256,61.3418156 C6.47810034,62.0108277 6.58243284,62.6327263 8.72599167,62.8400259 C10.8695505,63.0473254 13.2502287,63.1415525 13.990041,63.188666 C14.7298533,63.2357795 15.7542089,63.4148109 15.0902747,61.2475886 C14.2429459,58.8009286 13.2646194,56.4009988 12.1594797,54.0580639 C11.3817283,52.2771725 10.8221266,51.2500976 10.8221266,51.2500976 Z" id="Path" fill="#388CE0"></path>
                    <path d="M49.7002134,57.2240931 C49.6527895,56.6021945 47.8032587,49.5728559 46.8547813,46.3220224 L39.9119271,48.6965443 L41.5433082,53.8130736 L47.6515023,60.0980184 C48.9964596,59.8358982 49.8978055,58.5714931 49.7002134,57.2240931 Z" id="Path" fill="#FFA8A7"></path>
                    <path d="M41.5148538,53.8130736 C41.5148538,53.8130736 22.3745808,55.8483781 20.1266895,55.1605205 C17.8787981,54.472663 14.8626402,52.2394817 13.2407439,51.3160565 C11.6188476,50.3926313 10.4522205,50.3172497 10.4522205,50.7035806 C10.4522205,51.0899116 11.8369974,53.191175 12.1594797,54.0580639 C12.481962,54.9249529 10.6608855,54.9343756 8.28969208,54.3878586 C5.9184987,53.8413417 4.96053657,52.5033175 4.33454151,53.2759793 C3.70854646,54.0486412 5.65292504,57.9873323 9.59859083,59.4666971 C13.5442566,60.946062 16.4750517,59.9661006 19.7378138,60.0980184 C23.0005759,60.2299363 43.098811,61.5114243 47.623048,60.0980184 C47.867759,58.6318259 47.2629347,57.1533303 46.0580604,56.2723998 C44.7033734,55.1900686 43.1647441,54.3571786 41.5148538,53.8130736 L41.5148538,53.8130736 Z" id="Path" fill="#FFA8A7"></path>
                    <path d="M33.8985807,29.2669246 C36.9052539,30.2563088 42.8711765,30.7557122 44.7965855,37.2196884 C46.7219945,43.6836647 47.6894414,47.8767688 47.6894414,47.8767688 C46.5512686,49.3844018 41.9985773,51.1276024 39.9119271,50.4774357 L33.8985807,29.2669246 Z" id="Path" fill="#455A64"></path>
                    <polygon id="Path" fill="#37474F" points="39.9119271 50.4774357 37.8537312 43.2219521 39.9119271 53.4361653"></polygon>
                </g>
                <g id="freepik--character-1--inject-135" transform="translate(90.664273, 232.495512)">
                    <path d="M45.3698751,26.1959229 C45.2764445,26.3186425 44.4822848,27.6496786 44.4822848,27.6496786 L40.8291503,32.936063 L37.2694464,38.3262871 C37.0393302,38.663227 36.6204997,38.8119101 36.2323673,38.6944461 L35.9894478,38.6094863 C34.7561646,38.1469277 32.9062397,37.36341 30.4490162,36.2211733 C28.4776316,35.2771761 28.5804052,35.0034169 28.5804052,34.6635779 C28.5547535,34.393586 28.5547535,34.1217323 28.5804052,33.8517403 L28.5804052,33.8517403 L28.5804052,33.8517403 C28.9821566,33.0776626 30.2247829,31.1424683 31.8971898,28.6975155 C34.8682812,24.3362483 36.2977687,22.401054 37.1853589,21.1455377 C37.4469515,20.7672214 37.9409172,20.6354617 38.3532408,20.8340186 C39.9509032,21.3720971 43.1929432,22.7786529 44.8933793,23.4772109 L44.9681237,23.4772109 C45.8837431,23.9775294 45.3792181,26.158163 45.3698751,26.1959229 Z" id="Path" fill="#388CE0"></path>
                    <path d="M45.4633056,26.0260034 C45.4633056,26.0260034 44.5290001,27.6496786 44.5290001,27.6496786 L40.9599531,33.0399027 L37.2227311,38.2979672 C36.992615,38.6349071 36.5737845,38.7835902 36.185652,38.6661261 L35.9427326,38.5811664 C34.7094493,38.1186077 32.8595244,37.3350901 30.402301,36.1928534 C28.4309164,35.2488562 28.53369,34.975097 28.53369,34.635258 C28.5080382,34.365266 28.5080382,34.0934124 28.53369,33.8234204 L28.53369,33.8234204 L28.53369,33.8234204 C30.402301,34.654138 36.3164548,37.4861296 36.5126589,37.3822899 C36.9798117,37.1557306 40.9879823,30.6610297 43.1181988,27.3475995 C44.1833071,25.6956043 44.6598029,24.9970464 44.9868098,24.4306481 C45.1083778,24.293917 45.1639898,24.1099281 45.138768,23.9279034 C45.1135462,23.7458788 45.0100644,23.5843941 44.856007,23.4866508 L44.7812626,23.4866508 C45.2067072,23.7133776 45.5011349,24.1298522 45.5754223,24.6100075 C45.7825308,25.0699056 45.7401451,25.6052227 45.4633056,26.0260034 Z" id="Path" fill="#388CE0"></path>
                    <path d="M45.4633056,26.0260034 C45.4633056,26.0260034 44.5290001,27.6496786 44.5290001,27.6496786 L40.9599531,33.0399027 L37.2227311,38.2979672 C36.992615,38.6349071 36.5737845,38.7835902 36.185652,38.6661261 L35.9427326,38.5811664 C34.7094493,38.1186077 32.8595244,37.3350901 30.402301,36.1928534 C28.4309164,35.2488562 28.53369,34.975097 28.53369,34.635258 C28.5080382,34.365266 28.5080382,34.0934124 28.53369,33.8234204 L28.53369,33.8234204 L28.53369,33.8234204 C30.402301,34.654138 36.3164548,37.4861296 36.5126589,37.3822899 C36.9798117,37.1557306 40.9879823,30.6610297 43.1181988,27.3475995 C44.1833071,25.6956043 44.6598029,24.9970464 44.9868098,24.4306481 C45.1083778,24.293917 45.1639898,24.1099281 45.138768,23.9279034 C45.1135462,23.7458788 45.0100644,23.5843941 44.856007,23.4866508 L44.7812626,23.4866508 C45.2067072,23.7133776 45.5011349,24.1298522 45.5754223,24.6100075 C45.7825308,25.0699056 45.7401451,25.6052227 45.4633056,26.0260034 Z" id="Path" fill="#000000" opacity="0.1"></path>
                    <polygon id="Path" fill="#FAFAFA" points="37.2320742 22.3821741 43.7908988 25.1575259 36.8022936 35.654775 30.2808412 32.6245439"></polygon>
                    <path d="M35.3914923,58.9620664 C37.1853589,58.4428679 39.8948448,51.7027277 41.9316308,44.0563503 C43.9684168,36.4099728 45.0428681,34.7202178 45.1082695,32.3130248 C45.1736709,29.9058319 45.0054959,26.7434412 45.0054959,26.7434412 L41.455135,31.9826258 C41.3011268,30.9718452 40.9855795,29.9930662 40.5208295,29.0845544 C40.0630198,28.1405571 39.2034588,27.3947993 38.5027296,27.9611977 C38.1290074,28.2632768 39.1193713,29.556553 38.904481,32.4451845 C38.8869383,33.5966415 38.9997882,34.7463482 39.240831,35.8718944 L32.6446342,52.0142468 L35.3914923,58.9620664 Z" id="Path" fill="#FFA8A7"></path>
                    <path d="M8.84787308,25.4879249 C6.76437182,24.8932067 4.99853442,26.0165634 4.01751365,29.3677535 C2.29782541,35.6773018 1.04858598,42.1082007 0.28029165,48.6064169 C-1.32949207e-14,50.93809 -0.31766387,53.7700817 1.88729711,53.987201 C3.56904701,54.1571205 8.42743561,53.2131233 9.27765361,52.3635258 C10.4175063,51.2496091 10.2119591,46.7561823 10.2119591,46.7561823 L7.68933426,46.7561823 C7.68933426,46.7561823 8.23123145,43.2161927 8.39006339,42.1400359 C8.95064669,38.5245266 9.78217858,33.96502 9.78217858,33.96502 L8.84787308,25.4879249 Z" id="Path" fill="#F28F8F"></path>
                    <polygon id="Path" fill="#FFA8A7" points="21.0779321 22.1744947 20.2277141 29.7359124 12.8467006 30.6043899 13.9118089 20.5696994"></polygon>
                    <path d="M5.27882607,11.1391672 C5.88612465,4.15358777 9.6326897,1.28383622 12.5290367,0.585278276 C18.3777892,-0.802397637 24.1517972,1.17999653 26.5436192,5.30526438 C27.6499259,7.91564258 27.6499259,10.8699021 26.5436192,13.4802803 C25.2729638,16.4066717 5.30685524,11.1202873 5.30685524,11.1202873" id="Path" fill="#263238"></path>
                    <path d="M26.9079984,14.8962761 C26.9079984,14.8962761 27.9637636,17.7754677 27.683472,17.992587 C27.242888,18.1530232 26.7783636,18.2360363 26.3100429,18.2380263 L26.9079984,14.8962761 Z" id="Path" fill="#FFA8A7"></path>
                    <path d="M23.7593889,5.79614293 C25.151504,7.00445937 27.4966109,9.19453292 26.8706262,15.2361151 C26.1792401,21.4853767 24.6843513,23.1751318 23.6753014,23.77929 C23.0026014,24.1852088 20.0221669,23.4772109 18.6393947,22.6559333 C16.9202726,21.6269763 13.1083062,18.9743441 11.9497673,15.3965947 C10.5763383,11.1863671 11.2677243,6.16430185 14.276188,4.85214571 C17.387803,3.49953121 20.9688525,3.85600376 23.7593889,5.79614293 Z" id="Path" fill="#FFA8A7"></path>
                    <path d="M25.478511,5.95662246 C25.5390054,9.34099488 24.070561,12.5689474 21.4890265,14.7263566 C21.4890265,14.7263566 20.6201224,12.4513233 18.68611,12.9705218 C16.7520976,13.4897203 16.817499,16.0668327 18.2002711,17.4639486 C18.9321994,18.2792211 20.0653673,18.592142 21.1059612,18.2663462 C20.8302526,20.0521251 20.00291,21.7041504 18.7421683,22.9863323 C14.6366484,23.9403171 10.3529221,22.4364642 7.71736343,19.1159437 C3.44758729,13.933399 4.70889972,5.70174321 11.379841,3.27567035 C16.1955298,1.3232124 21.6947958,2.36893293 25.478511,5.95662246 L25.478511,5.95662246 Z" id="Path" fill="#263238"></path>
                    <path d="M11.9591104,135.9356 L15.1450921,140.410147 C13.6938089,141.073599 12.1126546,141.396338 10.5202799,141.354144 C7.67064815,141.467423 6.88583153,140.523426 6.78305793,140.296867 C6.29721907,139.24903 7.05400652,137.370475 7.25955373,135.75624 L11.9591104,135.9356 Z" id="Path" fill="#263238"></path>
                    <path d="M14.948888,138.248393 C14.948888,138.248393 18.8075697,137.993514 21.4890265,137.653675 C24.1704833,137.313836 26.2726706,138.597672 25.646686,139.739908 C25.0207013,140.882145 23.5444986,141.778942 21.2554501,142.5719 C19.3027516,143.242138 16.9483018,143.723577 14.9021727,144.337175 C12.8560437,144.950773 11.4639285,145.705971 10.2773605,145.281172 C8.95064669,144.818614 8.4087495,144.280535 8.49283699,143.308218 C8.78225573,141.921999 9.14086403,140.551453 9.56728832,139.20183 L14.948888,138.248393 Z" id="Path" fill="#263238"></path>
                    <path d="M6.78305793,131.423293 C6.78305793,131.423293 7.25955373,135.482481 7.29692595,136.360398 C7.33429817,137.238316 11.221009,137.512075 11.9684534,135.91672 L12.0899132,130.951294 L6.78305793,131.423293 Z" id="Path" fill="#F28F8F"></path>
                    <path d="M10.697798,133.924886 L9.343055,140.089187 C9.343055,140.089187 9.20290917,140.834945 12.3888909,141.316384 C15.5748727,141.797822 20.5453779,139.636069 21.3955959,139.20183 C22.2458139,138.767591 22.3299014,137.889674 19.2186641,138.059593 C16.1074268,138.229513 14.9956033,138.248393 14.9956033,138.248393 L16.0139963,135.510801 L10.697798,133.924886 Z" id="Path" fill="#FFA8A7"></path>
                    <path d="M6.78305793,51.4006486 C4.12028725,55.5825563 1.5976624,59.2641455 1.05576521,63.9652516 C-0.084087495,73.8961024 3.6531345,85.242949 4.44729418,92.5872474 C2.93655205,94.6771612 2.06300925,97.1674831 1.93401238,99.7521863 C1.93401238,102.791857 6.78305793,131.423293 6.78305793,131.423293 C6.78305793,131.423293 10.3053897,132.50889 12.0805701,130.951294 L15.4160407,78.2762495 L13.6595464,71.8665084 L6.78305793,51.4006486 Z" id="Path" fill="#455A64"></path>
                    <path d="M15.4160407,78.2762495 L13.6595464,71.8665084 C10.3536633,70.9979493 7.16338238,69.7301522 4.15765947,68.0905195 C4.15765947,68.0905195 5.96086909,71.3945098 11.1088924,73.2069844 L13.7903492,81.4480802 L14.0239255,100.328025 L15.4160407,78.2762495 Z" id="Path" fill="#37474F"></path>
                    <path d="M6.78305793,51.4006486 C5.36291357,53.7417617 1.95269849,57.7631899 2.68145678,61.6146986 C3.55970395,66.3346847 6.04495658,69.5725951 13.6595464,71.8665084 L20.7976404,97.9869114 C20.7976404,97.9869114 17.0604184,101.508021 15.9485949,104.849771 C14.8367713,108.191521 10.697798,133.924886 10.697798,133.924886 C10.697798,133.924886 11.9684534,136.020559 15.9859671,135.510801 C15.9859671,135.510801 30.0005496,103.235536 30.9348551,101.158742 C32.1302655,99.0330068 32.5501444,96.5510684 32.1214231,94.1448428 C31.6729564,90.7653327 26.9079984,53.7417617 26.9079984,53.7417617 L6.78305793,51.4006486 Z" id="Path" fill="#455A64"></path>
                    <path d="M5.48437328,27.829038 C6.07461804,26.2418594 7.68411704,25.2889802 9.343055,25.5445648 C14.3229033,26.9133607 22.0682959,28.7163954 23.5351555,29.1506342 L23.5351555,29.1506342 C23.5351555,29.1506342 22.8717986,38.8454856 28.6084344,42.2627555 C28.3374858,44.4245092 26.8799692,53.7417617 26.8799692,53.7417617 C26.8799692,53.7417617 19.9847946,57.1212718 14.3135603,55.4598367 C8.64232587,53.7984016 6.73634265,51.4006486 6.73634265,51.4006486 L9.53925915,46.7278624 C8.93196058,45.2080269 6.58685377,40.0443621 5.07327886,35.2488562 C4.54809108,32.7831812 4.69009928,30.2200839 5.48437328,27.829038 L5.48437328,27.829038 Z" id="Path" fill="#FAFAFA"></path>
                    <path d="M8.84787308,44.8870678 C11.2066775,46.3206508 13.6785123,47.5551804 16.2382296,48.5780969 C13.9117391,48.5173158 11.6374522,47.8681976 9.62334665,46.6901025 L8.84787308,44.8870678 Z" id="Path" fill="#E0E0E0"></path>
                    <path d="M28.4869747,41.5358777 C26.449002,40.5920354 24.7723765,39.0007861 23.7126736,37.004691 C24.0610373,40.113469 25.8271659,42.8791902 28.4869747,44.481149 L28.4869747,41.5358777 Z" id="Path" fill="#E0E0E0"></path>
                    <path d="M23.5818708,29.1506342 C26.7117942,30.0946314 28.6551497,30.3967105 30.3462426,31.925986 C32.5698897,33.94614 34.8682812,45.3685064 35.335434,47.7284994 C36.1482798,51.8160074 37.0452131,56.0639949 36.1669659,57.9708693 C35.5316381,59.3491052 32.0747078,60.3780622 30.5611329,55.9223953 C30.243469,54.9783981 30.1780676,54.5441594 29.897776,53.6945619 C28.4682886,49.4276944 26.3193859,41.2715585 26.3193859,41.2715585 C26.3193859,41.2715585 22.086982,38.9115654 23.5818708,29.1506342 Z" id="Path" fill="#FFA8A7"></path>
                    <path d="M8.4087495,3.27567035 C7.29692595,3.92702844 5.28816913,4.55950657 4.03619976,10.4594892 C3.0169472,15.40891 2.41063493,20.4360329 2.22364709,25.4879249 C2.27036236,27.3192796 6.02627047,32.4074246 13.9491811,31.925986 C21.8720917,31.4445474 24.7497527,26.7528812 24.7497527,26.7528812 C24.7497527,26.7528812 20.8536988,25.1480859 21.1620196,18.2569062 C21.1620196,18.2569062 19.7885905,20.9850582 16.0233393,19.6162622 C12.2580882,18.2474663 8.4087495,3.27567035 8.4087495,3.27567035 Z" id="Path" fill="#263238"></path>
                </g>
            </g>
        </g>
    </g>
</svg>